{
  "rooms": [
    {
      "id": 0,
      "position": {
        "x": 0.0,
        "y": 0.0,
        "z": 0.0
      },
      "length": 18.0,
      "width": 11.0,
      "height": 2.0,
      "doors": {
        "north": true,
        "east": true,
        "south": true,
        "west": false
      },
      "models": [
        {
          "id": 0,
          "name": "grenade_00.obj",
          "texture_id": 17,
          "specular": 64,
          "animate": true,
          "position": {
            "x": 9.0,
            "y": 5.5,
            "z": 1.0
          },
          "rotation": {
            "x": 270,
            "y": 0,
            "z": 0
          },
          "scale": {
            "x": 0.02,
            "y": 0.02,
            "z": 0.02
          }
        },
        {
          "id": 1,
          "name": "container_00.obj",
          "texture_id": 14,
          "specular": 64,
          "animate": false,
          "position": {
            "x": 2.0,
            "y": 4.0,
            "z": 1.5
          },
          "rotation": {
            "x": 90,
            "y": 0,
            "z": 0
          },
          "scale": {
            "x": 0.1,
            "y": 0.1,
            "z": 0.1
          }
        },
        {
          "id": 2,
          "name": "container_01.obj",
          "specular": 64,
          "texture_id": 15,
          "animate": false,
          "position": {
            "x": 10.0,
            "y": 8.0,
            "z": 2.0
          },
          "rotation": {
            "x": 270,
            "y": 0,
            "z": 0
          },
          "scale": {
            "x": 0.02,
            "y": 0.02,
            "z": 0.02
          }
        },
        {
          "id": 3,
          "name": "rock_00.obj",
          "specular": 8,
          "texture_id": 16,
          "animate": false,
          "position": {
            "x": 12.0,
            "y": 5.0,
            "z": 1.8
          },
          "rotation": {
            "x": 270,
            "y": 0,
            "z": 270
          },
          "scale": {
            "x": 0.003,
            "y": 0.003,
            "z": 0.003
          }
        }
      ],
      "textures": {
        "wall": 1,
        "floor": 5,
        "ceiling": 10
      },
      "light": {
        "id": 0,
        "position": {
          "x": 9.0,
          "y": 5.5,
          "z": 0.5
        },
        "color": {
          "r": 1.0,
          "g": 1.0,
          "b": 0.8,
          "w": 1.0
        }
      }
    },
    {
      "id": 1,
      "position": {
        "x": 18.001,
        "y": 4.0,
        "z": 0.0
      },
      "length": 12.0,
      "width": 3.0,
      "height": 2.0,
      "doors": {
        "north": false,
        "east": true,
        "south": true,
        "west": true
      },
      "models": [
      ],
      "textures": {
        "wall": 3,
        "floor": 7,
        "ceiling": 12
      },
      "light": {
        "id": 0,
        "position": {
          "x": 24.0,
          "y": 5.5,
          "z": 0.1
        },
        "color": {
          "r": 0.8,
          "g": 0.8,
          "b": 1.0,
          "w": 1.0
        }
      }
    },
    {
      "id": 2,
      "position": {
        "x": 30.002,
        "y": 0.0,
        "z": 0.0
      },
      "length": 10.0,
      "width": 11.0,
      "height": 2.0,
      "doors": {
        "north": false,
        "east": false,
        "south": false,
        "west": true
      },
      "models": [
        {
          "id": 0,
          "name": "health_potion.obj",
          "texture_id": 13,
          "specular": 128,
          "animate": true,
          "position": {
            "x": 35.0,
            "y": 5.5,
            "z": 1.0
          },
          "rotation": {
            "x": 270,
            "y": 0,
            "z": 0
          },
          "scale": {
            "x": 0.02,
            "y": 0.02,
            "z": 0.02
          }
        }
      ],
      "textures": {
        "wall": 4,
        "floor": 6,
        "ceiling": 10
      },
      "light": {
        "id": 0,
        "position": {
          "x": 35.0,
          "y": 5.5,
          "z": 0.5
        },
        "color": {
          "r": 0.8,
          "g": 1.0,
          "b": 1.0,
          "w": 1.0
        }
      }
    },
    {
      "id": 3,
      "position": {
        "x": 22.5,
        "y": -18.001,
        "z": 0.0
      },
      "length": 3.0,
      "width": 22.0,
      "height": 2.0,
      "doors": {
        "north": true,
        "east": true,
        "south": false,
        "west": false
      },
      "models": [
      ],
      "textures": {
        "wall": 3,
        "floor": 9,
        "ceiling": 11
      },
      "light": {
        "id": 0,
        "position": {
          "x": 24.0,
          "y": -7.0,
          "z": 0.5
        },
        "color": {
          "r": 0.8,
          "g": 1.0,
          "b": 0.8,
          "w": 1.0
        }
      }
    },
    {
      "id": 4,
      "position": {
        "x": 25.5001,
        "y": -8.5,
        "z": 0.0
      },
      "length": 10.5,
      "width": 3.0,
      "height": 2.0,
      "doors": {
        "north": false,
        "east": false,
        "south": false,
        "west": true
      },
      "models": [
        {
          "id": 0,
          "name": "gun_00.obj",
          "texture_id": 18,
          "specular": 256,
          "animate": true,
          "position": {
            "x": 30.0,
            "y": -7.0,
            "z": 1.0
          },
          "rotation": {
            "x": 315,
            "y": 0,
            "z": 0
          },
          "scale": {
            "x": 0.0001,
            "y": 0.0001,
            "z": 0.0001
          }
        }
      ],
      "textures": {
        "wall": 3,
        "floor": 9,
        "ceiling": 11
      },
      "light": {
        "id": 0,
        "position": {
          "x": 30.0,
          "y": -7.0,
          "z": 0.5
        },
        "color": {
          "r": 1.0,
          "g": 1.0,
          "b": 0.6,
          "w": 1.0
        }
      }
    },
    {
      "id": 5,
      "position": {
        "x": 7.5,
        "y": 11.001,
        "z": 0.0
      },
      "length": 3.0,
      "width": 14.0,
      "height": 2.0,
      "doors": {
        "north": true,
        "east": false,
        "south": true,
        "west": false
      },
      "models": [
      ],
      "textures": {
        "wall": 2,
        "floor": 6,
        "ceiling": 12
      },
      "light": {
        "id": 0,
        "position": {
          "x": 9.0,
          "y": 18.0,
          "z": 0.5
        },
        "color": {
          "r": 1.0,
          "g": 1.0,
          "b": 0.9,
          "w": 1.0
        }
      }
    },
    {
      "id": 6,
      "position": {
        "x": 2.0,
        "y": 25.002,
        "z": 0.0
      },
      "length": 14.0,
      "width": 8.0,
      "height": 2.0,
      "doors": {
        "north": false,
        "east": true,
        "south": true,
        "west": true
      },
      "models": [
      ],
      "textures": {
        "wall": 1,
        "floor": 5,
        "ceiling": 10
      },
      "light": {
        "id": 0,
        "position": {
          "x": 9.0,
          "y": 29.0,
          "z": 0.5
        },
        "color": {
          "r": 1.0,
          "g": 1.0,
          "b": 0.9,
          "w": 1.0
        }
      }
    },
    {
      "id": 7,
      "position": {
        "x": 16.001,
        "y": 27.0,
        "z": 0.0
      },
      "length": 5.0,
      "width": 4.0,
      "height": 2.0,
      "doors": {
        "north": false,
        "east": false,
        "south": false,
        "west": true
      },
      "models": [
      ],
      "textures": {
        "wall": 2,
        "floor": 6,
        "ceiling": 12
      },
      "light": {
        "id": 0,
        "position": {
          "x": 18.5,
          "y": 29.0,
          "z": 0.5
        },
        "color": {
          "r": 1.0,
          "g": 1.0,
          "b": 0.9,
          "w": 1.0
        }
      }
    },
    {
      "id": 8,
      "position": {
        "x": -6.501,
        "y": 27.5,
        "z": 0.0
      },
      "length": 8.5,
      "width": 3.0,
      "height": 2.0,
      "doors": {
        "north": false,
        "east": true,
        "south": false,
        "west": true
      },
      "models": [
      ],
      "textures": {
        "wall": 2,
        "floor": 9,
        "ceiling": 11
      },
      "light": {
        "id": 0,
        "position": {
          "x": -2.5,
          "y": 29.0,
          "z": 0.5
        },
        "color": {
          "r": 1.0,
          "g": 1.0,
          "b": 0.9,
          "w": 1.0
        }
      }
    },
    {
      "id": 9,
      "position": {
        "x": -9.502,
        "y": 24.0,
        "z": 0.0
      },
      "length": 3.0,
      "width": 10.0,
      "height": 2.0,
      "doors": {
        "north": false,
        "east": true,
        "south": true,
        "west": false
      },
      "models": [
      ],
      "textures": {
        "wall": 3,
        "floor": 7,
        "ceiling": 11
      },
      "light": {
        "id": 0,
        "position": {
          "x": -8.0,
          "y": 29.0,
          "z": 0.5
        },
        "color": {
          "r": 1.0,
          "g": 1.0,
          "b": 0.9,
          "w": 1.0
        }
      }
    },
    {
      "id": 10,
      "position": {
        "x": -13.0,
        "y": 20.999,
        "z": 0.0
      },
      "length": 10.0,
      "width": 3.0,
      "height": 2.0,
      "doors": {
        "north": true,
        "east": false,
        "south": false,
        "west": true
      },
      "models": [
      ],
      "textures": {
        "wall": 2,
        "floor": 6,
        "ceiling": 12
      },
      "light": {
        "id": 0,
        "position": {
          "x": -8.0,
          "y": 22.5,
          "z": 0.5
        },
        "color": {
          "r": 1.0,
          "g": 1.0,
          "b": 0.9,
          "w": 1.0
        }
      }
    },
    {
      "id": 11,
      "position": {
        "x": -24.003,
        "y": 19.0,
        "z": 0.0
      },
      "length": 11.0,
      "width": 7.0,
      "height": 2.0,
      "doors": {
        "north": true,
        "east": true,
        "south": true,
        "west": false
      },
      "models": [
      ],
      "textures": {
        "wall": 1,
        "floor": 5,
        "ceiling": 12
      },
      "light": {
        "id": 0,
        "position": {
          "x": -19.0,
          "y": 22.5,
          "z": 0.5
        },
        "color": {
          "r": 0.5,
          "g": 0.4,
          "b": 0.2,
          "w": 1.0
        }
      }
    },
    {
      "id": 12,
      "position": {
        "x": -22.0,
        "y": 26.001,
        "z": 0.0
      },
      "length": 7.0,
      "width": 6.0,
      "height": 2.0,
      "doors": {
        "north": false,
        "east": false,
        "south": true,
        "west": false
      },
      "models": [
      ],
      "textures": {
        "wall": 3,
        "floor": 8,
        "ceiling": 10
      },
      "light": {
        "id": 0,
        "position": {
          "x": -18.5,
          "y": 29.0,
          "z": 0.5
        },
        "color": {
          "r": 1.0,
          "g": 1.0,
          "b": 1.0,
          "w": 1.0
        }
      }
    },
    {
      "id": 13,
      "position": {
        "x": -20.0,
        "y": 10.999,
        "z": 0.0
      },
      "length": 3.0,
      "width": 8.0,
      "height": 2.0,
      "doors": {
        "north": true,
        "east": false,
        "south": true,
        "west": false
      },
      "models": [
      ],
      "textures": {
        "wall": 1,
        "floor": 8,
        "ceiling": 11
      },
      "light": {
        "id": 0,
        "position": {
          "x": -18.5,
          "y": 15.0,
          "z": 0.5
        },
        "color": {
          "r": 0.6,
          "g": 0.6,
          "b": 0.7,
          "w": 1.0
        }
      }
    },
    {
      "id": 14,
      "position": {
        "x": -26.0,
        "y": -1.001,
        "z": 0.0
      },
      "length": 15.0,
      "width": 12.0,
      "height": 2.0,
      "doors": {
        "north": true,
        "east": false,
        "south": true,
        "west": true
      },
      "models": [
      ],
      "textures": {
        "wall": 1,
        "floor": 9,
        "ceiling": 10
      },
      "light": {
        "id": 0,
        "position": {
          "x": -18.5,
          "y": 5.0,
          "z": 0.5
        },
        "color": {
          "r": 1.0,
          "g": 1.0,
          "b": 0.9,
          "w": 1.0
        }
      }
    },
    {
      "id": 15,
      "position": {
        "x": -29.001,
        "y": 1.0,
        "z": 0.0
      },
      "length": 3.0,
      "width": 8.0,
      "height": 2.0,
      "doors": {
        "north": true,
        "east": true,
        "south": true,
        "west": false
      },
      "models": [
      ],
      "textures": {
        "wall": 2,
        "floor": 6,
        "ceiling": 12
      },
      "light": {
        "id": 0,
        "position": {
          "x": -27.5,
          "y": 5.0,
          "z": 0.5
        },
        "color": {
          "r": 1.0,
          "g": 1.0,
          "b": 0.9,
          "w": 1.0
        }
      }
    },
    {
      "id": 16,
      "position": {
        "x": -29.0,
        "y": 9.001,
        "z": 0.0
      },
      "length": 3.0,
      "width": 7.0,
      "height": 2.0,
      "doors": {
        "north": true,
        "east": true,
        "south": true,
        "west": false
      },
      "models": [
      ],
      "textures": {
        "wall": 2,
        "floor": 6,
        "ceiling": 12
      },
      "light": {
        "id": 0,
        "position": {
          "x": -27.5,
          "y": 12.5,
          "z": 0.5
        },
        "color": {
          "r": 1.0,
          "g": 1.0,
          "b": 0.9,
          "w": 1.0
        }
      }
    },
    {
      "id": 17,
      "position": {
        "x": -26.0,
        "y": 11.002,
        "z": 0.0
      },
      "length": 5.0,
      "width": 3.0,
      "height": 2.0,
      "doors": {
        "north": false,
        "east": false,
        "south": false,
        "west": true
      },
      "models": [
      ],
      "textures": {
        "wall": 3,
        "floor": 8,
        "ceiling": 12
      },
      "light": {
        "id": 0,
        "position": {
          "x": -25.5,
          "y": 12.5,
          "z": 0.5
        },
        "color": {
          "r": 1.0,
          "g": 1.0,
          "b": 0.9,
          "w": 1.0
        }
      }
    },
    {
      "id": 18,
      "position": {
        "x": -29.0,
        "y": 16.003,
        "z": 0.0
      },
      "length": 3.0,
      "width": 3.0,
      "height": 2.0,
      "doors": {
        "north": false,
        "east": false,
        "south": true,
        "west": false
      },
      "models": [
      ],
      "textures": {
        "wall": 1,
        "floor": 5,
        "ceiling": 12
      },
      "light": {
        "id": 0,
        "position": {
          "x": -27.5,
          "y": 17.5,
          "z": 0.5
        },
        "color": {
          "r": 1.0,
          "g": 1.0,
          "b": 0.9,
          "w": 1.0
        }
      }
    },
    {
      "id": 19,
      "position": {
        "x": -29.001,
        "y": -11.001,
        "z": 0.0
      },
      "length": 3.0,
      "width": 12.0,
      "height": 2.0,
      "doors": {
        "north": true,
        "east": true,
        "south": false,
        "west": false
      },
      "models": [
      ],
      "textures": {
        "wall": 2,
        "floor": 6,
        "ceiling": 12
      },
      "light": {
        "id": 0,
        "position": {
          "x": -27.5,
          "y": -5.0,
          "z": 0.5
        },
        "color": {
          "r": 1.0,
          "g": 1.0,
          "b": 0.9,
          "w": 1.0
        }
      }
    },
    {
      "id": 20,
      "position": {
        "x": -26.0,
        "y": -7.0,
        "z": 0.0
      },
      "length": 6.0,
      "width": 4.0,
      "height": 2.0,
      "doors": {
        "north": false,
        "east": true,
        "south": false,
        "west": true
      },
      "models": [
      ],
      "textures": {
        "wall": 1,
        "floor": 8,
        "ceiling": 11
      },
      "light": {
        "id": 0,
        "position": {
          "x": -23.0,
          "y": -5.0,
          "z": 0.5
        },
        "color": {
          "r": 1.0,
          "g": 1.0,
          "b": 0.9,
          "w": 1.0
        }
      }
    },
    {
      "id": 21,
      "position": {
        "x": -20.002,
        "y": -9.0,
        "z": 0.0
      },
      "length": 3.0,
      "width": 8.0,
      "height": 2.0,
      "doors": {
        "north": true,
        "east": false,
        "south": true,
        "west": true
      },
      "models": [
      ],
      "textures": {
        "wall": 1,
        "floor": 5,
        "ceiling": 10
      },
      "light": {
        "id": 0,
        "position": {
          "x": -18.5,
          "y": -5.0,
          "z": 0.5
        },
        "color": {
          "r": 1.0,
          "g": 1.0,
          "b": 0.9,
          "w": 1.0
        }
      }
    },
    {
      "id": 22,
      "position": {
        "x": -26.0,
        "y": -12.003,
        "z": 0.0
      },
      "length": 15.0,
      "width": 3.0,
      "height": 2.0,
      "doors": {
        "north": true,
        "east": true,
        "south": true,
        "west": false
      },
      "models": [
      ],
      "textures": {
        "wall": 4,
        "floor": 9,
        "ceiling": 12
      },
      "light": {
        "id": 0,
        "position": {
          "x": -18.5,
          "y": -10.5,
          "z": 0.5
        },
        "color": {
          "r": 1.0,
          "g": 1.0,
          "b": 0.9,
          "w": 1.0
        }
      }
    },
    {
      "id": 23,
      "position": {
        "x": -10.999,
        "y": -12.0,
        "z": 0.0
      },
      "length": 11.0,
      "width": 3.0,
      "height": 2.0,
      "doors": {
        "north": false,
        "east": false,
        "south": false,
        "west": true
      },
      "models": [
      ],
      "textures": {
        "wall": 2,
        "floor": 6,
        "ceiling": 12
      },
      "light": {
        "id": 0,
        "position": {
          "x": -5.5,
          "y": -10.5,
          "z": 0.5
        },
        "color": {
          "r": 1.0,
          "g": 1.0,
          "b": 0.9,
          "w": 1.0
        }
      }
    },
    {
      "id": 24,
      "position": {
        "x": -23.0,
        "y": -17.004,
        "z": 0.0
      },
      "length": 9.0,
      "width": 5.0,
      "height": 2.0,
      "doors": {
        "north": true,
        "east": false,
        "south": true,
        "west": false
      },
      "models": [
      ],
      "textures": {
        "wall": 3,
        "floor": 9,
        "ceiling": 11
      },
      "light": {
        "id": 0,
        "position": {
          "x": -18.5,
          "y": -14.5,
          "z": 0.5
        },
        "color": {
          "r": 1.0,
          "g": 1.0,
          "b": 0.9,
          "w": 1.0
        }
      }
    },
    {
      "id": 25,
      "position": {
        "x": -20.0,
        "y": -20.005,
        "z": 0.0
      },
      "length": 3.0,
      "width": 3.0,
      "height": 2.0,
      "doors": {
        "north": true,
        "east": false,
        "south": false,
        "west": false
      },
      "models": [
      ],
      "textures": {
        "wall": 2,
        "floor": 8,
        "ceiling": 10
      },
      "light": {
        "id": 0,
        "position": {
          "x": -18.5,
          "y": -18.5,
          "z": 0.5
        },
        "color": {
          "r": 1.0,
          "g": 1.0,
          "b": 0.9,
          "w": 1.0
        }
      }
    },
    {
      "id": 26,
      "position": {
        "x": 7.0,
        "y": -14.001,
        "z": 0.0
      },
      "length": 4.0,
      "width": 14.0,
      "height": 2.0,
      "doors": {
        "north": true,
        "east": false,
        "south": true,
        "west": false
      },
      "models": [
      ],
      "textures": {
        "wall": 2,
        "floor": 8,
        "ceiling": 11
      },
      "light": {
        "id": 0,
        "position": {
          "x": 9.0,
          "y": -7.0,
          "z": 0.5
        },
        "color": {
          "r": 1.0,
          "g": 1.0,
          "b": 0.9,
          "w": 1.0
        }
      }
    },
    {
      "id": 27,
      "position": {
        "x": 7.0,
        "y": -19.002,
        "z": 0.0
      },
      "length": 4.0,
      "width": 5.0,
      "height": 2.0,
      "doors": {
        "north": true,
        "east": true,
        "south": true,
        "west": true
      },
      "models": [
      ],
      "textures": {
        "wall": 1,
        "floor": 6,
        "ceiling": 12
      },
      "light": {
        "id": 0,
        "position": {
          "x": 9.0,
          "y": -16.5,
          "z": 0.5
        },
        "color": {
          "r": 1.0,
          "g": 1.0,
          "b": 0.9,
          "w": 1.0
        }
      }
    },
    {
      "id": 28,
      "position": {
        "x": 7.0,
        "y": -24.003,
        "z": 0.0
      },
      "length": 4.0,
      "width": 5.0,
      "height": 2.0,
      "doors": {
        "north": true,
        "east": true,
        "south": true,
        "west": true
      },
      "models": [
      ],
      "textures": {
        "wall": 2,
        "floor": 6,
        "ceiling": 12
      },
      "light": {
        "id": 0,
        "position": {
          "x": 9.0,
          "y": -21.5,
          "z": 0.5
        },
        "color": {
          "r": 1.0,
          "g": 1.0,
          "b": 0.9,
          "w": 1.0
        }
      }
    },
    {
      "id": 29,
      "position": {
        "x": 1.0,
        "y": -27.004,
        "z": 0.0
      },
      "length": 16.0,
      "width": 3.0,
      "height": 2.0,
      "doors": {
        "north": true,
        "east": false,
        "south": false,
        "west": false
      },
      "models": [
      ],
      "textures": {
        "wall": 1,
        "floor": 5,
        "ceiling": 11
      },
      "light": {
        "id": 0,
        "position": {
          "x": 9.0,
          "y": -25.5,
          "z": 0.5
        },
        "color": {
          "r": 1.0,
          "g": 1.0,
          "b": 0.9,
          "w": 1.0
        }
      }
    },
    {
      "id": 30,
      "position": {
        "x": 11.001,
        "y": -19.0,
        "z": 0.0
      },
      "length": 6.0,
      "width": 5.0,
      "height": 2.0,
      "doors": {
        "north": false,
        "east": false,
        "south": false,
        "west": true
      },
      "models": [
      ],
      "textures": {
        "wall": 2,
        "floor": 6,
        "ceiling": 12
      },
      "light": {
        "id": 0,
        "position": {
          "x": 14.0,
          "y": -16.5,
          "z": 0.5
        },
        "color": {
          "r": 1.0,
          "g": 1.0,
          "b": 0.9,
          "w": 1.0
        }
      }
    },
    {
      "id": 31,
      "position": {
        "x": 11.001,
        "y": -24.0,
        "z": 0.0
      },
      "length": 6.0,
      "width": 5.0,
      "height": 2.0,
      "doors": {
        "north": false,
        "east": false,
        "south": false,
        "west": true
      },
      "models": [
      ],
      "textures": {
        "wall": 1,
        "floor": 9,
        "ceiling": 10
      },
      "light": {
        "id": 0,
        "position": {
          "x": 14.0,
          "y": -21.5,
          "z": 0.5
        },
        "color": {
          "r": 1.0,
          "g": 1.0,
          "b": 0.9,
          "w": 1.0
        }
      }
    },
    {
      "id": 32,
      "position": {
        "x": 0.999,
        "y": -24.0,
        "z": 0.0
      },
      "length": 6.0,
      "width": 5.0,
      "height": 2.0,
      "doors": {
        "north": false,
        "east": true,
        "south": false,
        "west": false
      },
      "models": [
      ],
      "textures": {
        "wall": 2,
        "floor": 8,
        "ceiling": 12
      },
      "light": {
        "id": 0,
        "position": {
          "x": 4.0,
          "y": -21.5,
          "z": 0.5
        },
        "color": {
          "r": 1.0,
          "g": 1.0,
          "b": 0.9,
          "w": 1.0
        }
      }
    },
    {
      "id": 33,
      "position": {
        "x": 0.999,
        "y": -19.0,
        "z": 0.0
      },
      "length": 6.0,
      "width": 5.0,
      "height": 2.0,
      "doors": {
        "north": false,
        "east": true,
        "south": false,
        "west": false
      },
      "models": [
      ],
      "textures": {
        "wall": 4,
        "floor": 6,
        "ceiling": 12
      },
      "light": {
        "id": 0,
        "position": {
          "x": 4.0,
          "y": -16.5,
          "z": 0.5
        },
        "color": {
          "r": 1.0,
          "g": 1.0,
          "b": 0.9,
          "w": 1.0
        }
      }
    }
  ]
}
